%YAML 1.1
%TAG !u! tag:unity3d.com,2011:
--- !u!114 &11400000
MonoBehaviour:
  m_ObjectHideFlags: 0
  m_CorrespondingSourceObject: {fileID: 0}
  m_PrefabInstance: {fileID: 0}
  m_PrefabAsset: {fileID: 0}
  m_GameObject: {fileID: 0}
  m_Enabled: 1
  m_EditorHideFlags: 0
  m_Script: {fileID: 11500000, guid: c12fccd34e1ee2240aa8baa4f25ee677, type: 3}
  m_Name: Teams
  m_EditorClassIdentifier: 
  teamDatas:
  - teamType: 0
    material: {fileID: 2100000, guid: deeeff8c1c3a8b345bc2ed04dc1871d2, type: 2}
    layer:
      serializedVersion: 2
      m_Bits: 512
  - teamType: 1
    material: {fileID: 2100000, guid: bf00eb2bf96c91847a5262aeb6ed0899, type: 2}
    layer:
      serializedVersion: 2
      m_Bits: 1024
